%YAML 1.1
%TAG !u! tag:unity3d.com,2011:
--- !u!221 &22100000
AnimatorOverrideController:
  m_ObjectHideFlags: 0
  m_PrefabParentObject: {fileID: 0}
  m_PrefabInternal: {fileID: 0}
  m_Name: Orange_2
  m_Controller: {fileID: 9100000, guid: 06838b572b3c94c4eace0245518a8a02, type: 2}
  m_Clips:
  - m_OriginalClip: {fileID: 7400000, guid: be2d25188e7332344b3cec9a20c7b911, type: 2}
    m_OverrideClip: {fileID: 7400000, guid: a09cf778a3bd08f48bac5f97823a98af, type: 2}
  - m_OriginalClip: {fileID: 7400000, guid: 14aaa281485746b4da2ff02af4df8aed, type: 2}
    m_OverrideClip: {fileID: 7400000, guid: 1d295c0641b469244b073494112086b1, type: 2}
  - m_OriginalClip: {fileID: 7400000, guid: 5a830282bffcd7d42b1a5124fc81b165, type: 2}
    m_OverrideClip: {fileID: 7400000, guid: 73cef33b24bfa8b41a17722ca8a06ee8, type: 2}
  - m_OriginalClip: {fileID: 7400000, guid: 1772a6acb8ab32f46972329a4b129462, type: 2}
    m_OverrideClip: {fileID: 7400000, guid: 12cb2c5995ca50544b0d760637bb35e9, type: 2}
  - m_OriginalClip: {fileID: 7400000, guid: 3fdbfdf97e2f1ba46b5b3a7d714a402a, type: 2}
    m_OverrideClip: {fileID: 7400000, guid: 18b92d11ff0474247ae1d4e7ba522b51, type: 2}
  - m_OriginalClip: {fileID: 7400000, guid: 7760c02b8c34026409f7203e7dfa6caf, type: 2}
    m_OverrideClip: {fileID: 7400000, guid: f77536e2e471d5945b09bdfcfd2e2fed, type: 2}
  - m_OriginalClip: {fileID: 7400000, guid: 716167f1cd825e74bbe87a1838d5d826, type: 2}
    m_OverrideClip: {fileID: 7400000, guid: ec660521659282747920c6c2b070a2ea, type: 2}
  - m_OriginalClip: {fileID: 7400000, guid: eebdf0d0b3f395043acebcd4e31ac5ee, type: 2}
    m_OverrideClip: {fileID: 7400000, guid: 6a12864d46355a54997002627dee1bce, type: 2}
  - m_OriginalClip: {fileID: 7400000, guid: bccac3b2ed8460a48b5f2ca78b83bd7f, type: 2}
    m_OverrideClip: {fileID: 7400000, guid: bd1cc87e385299a4085f51e3e715463a, type: 2}
